{
        "eu":[{
            "2011": "11.4",
            "2012": "11.0",
            "2013": "11.1",
            "2014": "11.6",
            "2015": "11.4",
            "2016": "11.1",
            "2017": "10.4",
            "2018": "10.3",
            "2019": "10.1",
            "Country": "EU",
            "mean": "10.9",
            "median": "11.1",
            "stdv": "0.54"
        }],
        "be": [{
            "2011": "10.6",
            "2012": "11.0",
            "2013": "9.6",
            "2014": "10.4",
            "2015": "9.4",
            "2016": "9.8",
            "2017": "9.4",
            "2018": "8.9",
            "2019": "8.4",
            "2020": "7.8",
            "Country": "Belgium",
            "mean": "9.5",
            "median": "9.5",
            "stdv": "0.99"
        }],
        "dk": [{
            "2011": "18.5",
            "2012": "16.7",
            "2013": "17.9",
            "2014": "15.6",
            "2015": "15.1",
            "2016": "15.1",
            "2017": "15.7",
            "2018": "14.7",
            "2019": "15.6",
            "2020": "14.1",
            "Country": "Denmark",
            "mean": "15.9",
            "median": "15.6",
            "stdv": "1.40"
        }],
        "es": [{
            "2011": "10.0",
            "2012": "10.7",
            "2013": "10.3",
            "2014": "10.9",
            "2015": "10.3",
            "2016": "10.2",
            "2017": "9.8",
            "2018": "8.9",
            "2019": "8.5",
            "2020": "8.2",
            "Country": "Spain",
            "mean": "9.8",
            "median": "10.1",
            "stdv": "0.93"
        }],
        "it": [{
            "2011": "8.7",
            "2012": "8.1",
            "2013": "8.9",
            "2014": "8.5",
            "2015": "8.6",
            "2016": "9.6",
            "2017": "8.2",
            "2018": "8.2",
            "2019": "8.7",
            "Country": "Italy",
            "mean": "8.6",
            "median": "8.6",
            "stdv": "0.46"
        }],
        "si": [{
            "2011": "4.7",
            "2012": "5.2",
            "2013": "6.0",
            "2014": "6.4",
            "2015": "6.1",
            "2016": "5.7",
            "2017": "5.2",
            "2018": "4.9",
            "2019": "4.1",
            "2020": "4.4",
            "Country": "Slovenia",
            "mean": "5.3",
            "median": "5.2",
            "stdv": "0.77"
        }],
        "uk": [{
            "2011": "16.4",
            "2012": "7.3",
            "2013": "7.9",
            "2014": "12.5",
            "2015": "12.4",
            "2016": "12.3",
            "2017": "12.4",
            "2018": "15.1",
            "Country": "United Kingdom",
            "mean": "12.0",
            "median": "12.4",
            "stdv": "3.13"
        }]
}