{
        "eu": [{
            "Country": "European Union",
            "Total": "19.1",
            "First quintile": "25.1",
            "Second quintile": "21.1",
            "Third quintile": "18.5",
            "Fourth quintile": "16.4",
            "Fifth quintile": "14.4"
        }],
        "be": [{
            "Country": "Belgium",
            "Total": "12.4",
            "First quintile": "19.0",
            "Second quintile": "14.9",
            "Third quintile": "10.1",
            "Fourth quintile": "8.6",
            "Fifth quintile": "9.6"
        }],
        "dk": [{
            "Country": "Denmark",
            "Total": "11.3",
            "First quintile": "10.7",
            "Second quintile": "13.6",
            "Third quintile": "10.7",
            "Fourth quintile": "13.2",
            "Fifth quintile": "8.2"
        }],
        "es": [{
            "Country": "Spain",
            "Total": "25.6",
            "First quintile": "36.7",
            "Second quintile": "30.7",
            "Third quintile": "24.6",
            "Fourth quintile": "20.2",
            "Fifth quintile": "15.7"
        }],
        "it": [{
            "Country": "Italy",
            "Total": "26.0",
            "First quintile": "36.9",
            "Second quintile": "29.2",
            "Third quintile": "24.7",
            "Fourth quintile": "21.4",
            "Fifth quintile": "17.7"
        }],
        "si": [{
            "Country": "Slovenia",
            "Total": "17.3",
            "First quintile": "20.1",
            "Second quintile": "19.5",
            "Third quintile": "19.2",
            "Fourth quintile": "14.8",
            "Fifth quintile": "12.9"
        }],
        "uk": [{
            "Country": "United Kingdom",
            "Total": "3.3",
            "First quintile": "4.0",
            "Second quintile": "4.4",
            "Third quintile": "2.9",
            "Fourth quintile": "3.3",
            "Fifth quintile": "1.9"
        }]
}